"키값","명칭","행정시","행정구","행정동"
"BE_LiST38-0001","Police Heritage Museum","Seoul","Jongno-gu","Sajik-dong"
"BE_LiST38-0002","The National Palace Museum of Korea","Seoul","Jongno-gu","Cheongunhyoja-dong"
"BE_LiST38-0003","The National Museum of Korea","Seoul","Yongsan-gu","Seobinggo-dong"
"BE_LiST38-0004","National Museum of Korean Contemporary History","Seoul","Jongno-gu","Sajik-dong"
"BE_LiST38-0005","Sword Museum","Seoul","Jongno-gu","Pyeongchang-dong"
"BE_LiST38-0006","The Memorial to the Patriot Yun Bonggil","Seoul","Seocho-gu","Yangjae2-dong"
"BE_LiST38-0007","Myeongin Museum","Seoul","Jongno-gu","Gahoe-dong"
"BE_LiST38-0008","Mongchon Museum of History","Seoul","Songpa-gu","Oryun-dong"
"BE_LiST38-0009","Folk Museum","Seoul","Jongno-gu","Cheongunhyoja-dong"
"BE_LiST38-0010","Park Eul Bok Embroidery Museum","Seoul","Gangbuk-gu","Ui-dong"
"BE_LiST38-0011","Owl Antiques Museum","Seoul","Jongno-gu","Samcheong-dong"
"BE_LiST38-0012","Bukchon Museum Old Fragrance","Seoul","Jongno-gu","Samcheong-dong"
"BE_LiST38-0013","Samseong Museum of Publishing","Seoul","Jongno-gu","Pyeongchang-dong"
"BE_LiST38-0014","Sangmyeong University Museum","Seoul","Jongno-gu","Pyeongchang-dong"
"BE_LiST38-0015","Life Science Museum","Seoul","Yangcheon-gu","Mok1-dong"
"BE_LiST38-0016","The Seodaemun Museum of Natural History","Seoul","Seodaemun-gu","Yeonhui-dong"
"BE_LiST38-0017","Seodaemun Prison History Hall","Seoul","Seodaemun-gu","Cheonyeon-dong"
"BE_LiST38-0018","Korean Customs Museum","Seoul","Gangnam-gu","Nonhyeon2-dong"
"BE_LiST38-0019","World Jewellery Museuml","Seoul","Jongno-gu","Samcheong-dong"
"BE_LiST38-0020","Ceramuse Porcelain Museum","Seoul","Jongno-gu","Pyeongchang-dong"
"BE_LiST38-0021","Waterworks Museum","Seoul","Seongdong-gu","Seongsu1ga1-dong"
"BE_LiST38-0022","Shuim Museum","Seoul","Jongno-gu","Buam-dong"
"BE_LiST38-0023","Silkroad Museum","Seoul","Jongno-gu","Samcheong-dong"
"BE_LiST38-0024","National Children＇s Museum","Seoul","Jongno-gu","Cheongunhyoja-dong"
"BE_LiST38-0025","Young-In Literary House","Seoul","Jongno-gu","Pyeongchang-dong"
"BE_LiST38-0026","Diplomatic History Exhibit?Hall","Seoul","Seocho-gu","Seocho2-dong"
"BE_LiST38-0027","The War Memorial of Korea","Seoul","Yongsan-gu","Namyeong-dong"
"BE_LiST38-0028","Jeoldusan Martyrs' Shrine","Seoul","Mapo-gu","Hapjeong-dong"
"BE_LiST38-0029","Securities Museum","Seoul","Yeongdeungpo-gu","Yeoui-dong"
"BE_LiST38-0030","Museum of Korean Indigenous Straw and Plant Handicraft","Seoul","Jongno-gu","Hyehwa-dong"
"BE_LiST38-0031","Cheonggyecheon Museum","Seoul","Seongdong-gu","Majang-dong"
"BE_LiST38-0032","Postal Memorial Hall","Seoul","Jongno-gu","Jongno1.2.3.4ga-dong"
"BE_LiST38-0033","Toykino Toy Museum","Seoul","Jongno-gu","Samcheong-dong"
"BE_LiST38-0034","Tibetan Museum","Seoul","Jongno-gu","Cheongunhyoja-dong"
"BE_LiST38-0035","Abraham Park & Kenneth Vine Collection","Seoul","Guro-gu","Oryu2-dong"
"BE_LiST38-0036","Korea Furniture Museum","Seoul","Seongbuk-gu","Seongbuk-dong"
"BE_LiST38-0037","Korea Film Museum","Seoul","Mapo-gu","Sangam-dong"
"BE_LiST38-0038","Bank of Korea Money Museum","Seoul","Jung-gu","Sogong-dong"
"BE_LiST38-0039","Seoul Baekje Museum","Seoul","Songpa-gu","Oryun-dong"
"BE_LiST38-0040","Heojun Museum","Seoul","Gangseo-gu","Gayang2-dong"
"BE_LiST38-0041","Horim Museum","Seoul","Gwanak-gu","Miseong-dong"
"BE_LiST38-0042","Hwajeong Museum","Seoul","Jongno-gu","Pyeongchang-dong"